CDSD/pratica_5/Resfriamento/5V/F0000CH1.CSV

Record Length,2.500000e+03,,   0.000000000000,   0.61600,
Sample Interval,2.000000e-01,,   0.200000000000,   0.62400,
Trigger Point,0.000000000000e+00,,   0.400000000000,   0.62400,
,,,   0.600000000000,   0.62400,
,,,   0.800000000000,   0.63200,
,,,   1.000000000000,   0.61600,
Source,CH1,,   1.200000000000,   0.61600,
Vertical Units,V,,   1.400000000000,   0.62400,
Vertical Scale,2.000000e-01,,   1.600000000000,   0.62400,
Vertical Offset,0.000000e+00,,   1.800000000000,   0.62400,
Horizontal Units,s,,   2.000000000000,   0.61600,
Horizontal Scale,5.000000e+01,,   2.200000000000,   0.62400,
Pt Fmt,Y,,   2.400000000000,   0.63200,
Yzero,0.000000e+00,,   2.600000000000,   0.63200,
Probe Atten,1.000000e+01,,   2.800000000000,   0.62400,
Model Number,TDS2002B,,   3.000000000000,   0.61600,
Serial Number,C053176,,   3.200000000000,   0.62400,
Firmware Version,FV:v22.01,,   3.400000000000,   0.61600,
,,,3.600000000000,   0.62400,
,,,3.800000000000,   0.64000,
,,,4.000000000000,   0.63200,
,,,4.200000000000,   0.62400,
,,,4.400000000000,   0.61600,
,,,4.600000000000,   0.63200,
,,,4.800000000000,   0.62400,
,,,5.000000000000,   0.65600,
,,,5.200000000000,   0.64000,
,,,5.400000000000,   0.61600,
,,,5.600000000000,   0.63200,
,,,5.800000000000,   0.64000,
,,,6.000000000000,   0.63200,
,,,6.200000000000,   0.62400,
,,,6.400000000000,   0.64000,
,,,6.600000000000,   0.63200,
,,,6.800000000000,   0.62400,
,,,7.000000000000,   0.63200,
,,,7.200000000000,   0.63200,
,,,7.400000000000,   0.72000,
,,,7.600000000000,   0.64000,
,,,7.800000000000,   0.62400,
,,,8.000000000000,   0.64000,
,,,8.200000000000,   0.62400,
,,,8.400000000000,   0.62400,
,,,8.600000000000,   0.63200,
,,,8.800000000000,   0.62400,
,,,9.000000000000,   0.61600,
,,,9.200000000000,   0.63200,
,,,9.400000000000,   0.62400,
,,,9.600000000000,   0.62400,
,,,9.800000000000,   0.62400,
,,,10.000000000000,   0.63200,
,,,10.200000000000,   0.61600,
,,,10.400000000000,   0.61600,
,,,10.600000000000,   0.63200,
,,,10.800000000000,   0.60800,
,,,11.000000000000,   0.64000,
,,,11.200000000000,   0.61600,
,,,11.400000000000,   0.62400,
,,,11.600000000000,   0.62400,
,,,11.800000000000,   0.62400,
,,,12.000000000000,   0.62400,
,,,12.200000000000,   0.62400,
,,,12.400000000000,   0.60000,
,,,12.600000000000,   0.61600,
,,,12.800000000000,   0.62400,
,,,13.000000000000,   0.62400,
,,,13.200000000000,   0.63200,
,,,13.400000000000,   0.62400,
,,,13.600000000000,   0.62400,
,,,13.800000000000,   0.62400,
,,,14.000000000000,   0.62400,
,,,14.200000000000,   0.62400,
,,,14.400000000000,   0.61600,
,,,14.600000000000,   0.63200,
,,,14.800000000000,   0.63200,
,,,15.000000000000,   0.63200,
,,,15.200000000000,   0.63200,
,,,15.400000000000,   0.61600,
,,,15.600000000000,   0.62400,
,,,15.800000000000,   0.62400,
,,,16.000000000000,   0.62400,
,,,16.200000000000,   0.63200,
,,,16.400000000000,   0.62400,
,,,16.600000000000,   0.62400,
,,,16.800000000000,   0.62400,
,,,17.000000000000,   0.62400,
,,,17.200000000000,   0.62400,
,,,17.400000000000,   0.60800,
,,,17.600000000000,   0.62400,
,,,17.800000000000,   0.61600,
,,,18.000000000000,   0.62400,
,,,18.200000000000,   0.62400,
,,,18.400000000000,   0.62400,
,,,18.600000000000,   0.61600,
,,,18.800000000000,   0.62400,
,,,19.000000000000,   0.62400,
,,,19.200000000000,   0.61600,
,,,19.400000000000,   0.61600,
,,,19.600000000000,   0.62400,
,,,19.800000000000,   0.63200,
,,,20.000000000000,   0.62400,
,,,20.200000000000,   0.62400,
,,,20.400000000000,   0.62400,
,,,20.600000000000,   0.63200,
,,,20.800000000000,   0.61600,
,,,21.000000000000,   0.61600,
,,,21.200000000000,   0.64000,
,,,21.400000000000,   0.61600,
,,,21.600000000000,   0.61600,
,,,21.800000000000,   0.62400,
,,,22.000000000000,   0.61600,
,,,22.200000000000,   0.63200,
,,,22.400000000000,   0.62400,
,,,22.600000000000,   0.62400,
,,,22.800000000000,   0.62400,
,,,23.000000000000,   0.64000,
,,,23.200000000000,   0.62400,
,,,23.400000000000,   0.63200,
,,,23.600000000000,   0.61600,
,,,23.800000000000,   0.61600,
,,,24.000000000000,   0.61600,
,,,24.200000000000,   0.62400,
,,,24.400000000000,   0.64000,
,,,24.600000000000,   0.63200,
,,,24.800000000000,   0.62400,
,,,25.000000000000,   0.63200,
,,,25.200000000000,   0.60800,
,,,25.400000000000,   0.62400,
,,,25.600000000000,   0.63200,
,,,25.800000000000,   0.62400,
,,,26.000000000000,   0.62400,
,,,26.200000000000,   0.62400,
,,,26.400000000000,   0.62400,
,,,26.600000000000,   0.61600,
,,,26.800000000000,   0.63200,
,,,27.000000000000,   0.62400,
,,,27.200000000000,   0.61600,
,,,27.400000000000,   0.61600,
,,,27.600000000000,   0.63200,
,,,27.800000000000,   0.61600,
,,,28.000000000000,   0.63200,
,,,28.200000000000,   0.61600,
,,,28.400000000000,   0.62400,
,,,28.600000000000,   0.61600,
,,,28.800000000000,   0.61600,
,,,29.000000000000,   0.61600,
,,,29.200000000000,   0.61600,
,,,29.400000000000,   0.61600,
,,,29.600000000000,   0.62400,
,,,29.800000000000,   0.61600,
,,,30.000000000000,   0.60800,
,,,30.200000000000,   0.62400,
,,,30.400000000000,   0.61600,
,,,30.600000000000,   0.62400,
,,,30.800000000000,   0.62400,
,,,31.000000000000,   0.61600,
,,,31.200000000000,   0.61600,
,,,31.400000000000,   0.62400,
,,,31.600000000000,   0.62400,
,,,31.800000000000,   0.62400,
,,,32.000000000000,   0.62400,
,,,32.200000000000,   0.62400,
,,,32.400000000000,   0.62400,
,,,32.600000000000,   0.61600,
,,,32.800000000000,   0.62400,
,,,33.000000000000,   0.61600,
,,,33.200000000000,   0.62400,
,,,33.400000000000,   0.64000,
,,,33.600000000000,   0.62400,
,,,33.800000000000,   0.63200,
,,,34.000000000000,   0.63200,
,,,34.200000000000,   0.62400,
,,,34.400000000000,   0.68800,
,,,34.600000000000,   0.62400,
,,,34.800000000000,   0.61600,
,,,35.000000000000,   0.62400,
,,,35.200000000000,   0.62400,
,,,35.400000000000,   0.62400,
,,,35.600000000000,   0.62400,
,,,35.800000000000,   0.62400,
,,,36.000000000000,   0.63200,
,,,36.200000000000,   0.61600,
,,,36.400000000000,   0.63200,
,,,36.600000000000,   0.63200,
,,,36.800000000000,   0.63200,
,,,37.000000000000,   0.62400,
,,,37.200000000000,   0.62400,
,,,37.400000000000,   0.62400,
,,,37.600000000000,   0.61600,
,,,37.800000000000,   0.64000,
,,,38.000000000000,   0.62400,
,,,38.200000000000,   0.62400,
,,,38.400000000000,   0.48800,
,,,38.600000000000,   0.60000,
,,,38.800000000000,   0.63200,
,,,39.000000000000,   0.61600,
,,,39.200000000000,   0.62400,
,,,39.400000000000,   0.61600,
,,,39.600000000000,   0.62400,
,,,39.800000000000,   0.63200,
,,,40.000000000000,   0.62400,
,,,40.200000000000,   0.62400,
,,,40.400000000000,   0.63200,
,,,40.600000000000,   0.63200,
,,,40.800000000000,   0.62400,
,,,41.000000000000,   0.61600,
,,,41.200000000000,   0.63200,
,,,41.400000000000,   0.64800,
,,,41.600000000000,   0.63200,
,,,41.800000000000,   0.62400,
,,,42.000000000000,   0.62400,
,,,42.200000000000,   0.60800,
,,,42.400000000000,   0.62400,
,,,42.600000000000,   0.62400,
,,,42.800000000000,   0.64000,
,,,43.000000000000,   0.64000,
,,,43.200000000000,   0.62400,
,,,43.400000000000,   0.63200,
,,,43.600000000000,   0.62400,
,,,43.800000000000,   0.62400,
,,,44.000000000000,   0.61600,
,,,44.200000000000,   0.61600,
,,,44.400000000000,   0.63200,
,,,44.600000000000,   0.63200,
,,,44.800000000000,   0.63200,
,,,45.000000000000,   0.62400,
,,,45.200000000000,   0.61600,
,,,45.400000000000,   0.63200,
,,,45.600000000000,   0.62400,
,,,45.800000000000,   0.64000,
,,,46.000000000000,   0.62400,
,,,46.200000000000,   0.64000,
,,,46.400000000000,   0.63200,
,,,46.600000000000,   0.63200,
,,,46.800000000000,   0.61600,
,,,47.000000000000,   0.62400,
,,,47.200000000000,   0.64000,
,,,47.400000000000,   0.62400,
,,,47.600000000000,   0.63200,
,,,47.800000000000,   0.62400,
,,,48.000000000000,   0.61600,
,,,48.200000000000,   0.63200,
,,,48.400000000000,   0.62400,
,,,48.600000000000,   0.63200,
,,,48.800000000000,   0.62400,
,,,49.000000000000,   0.64000,
,,,49.200000000000,   0.61600,
,,,49.400000000000,   0.62400,
,,,49.600000000000,   0.60800,
,,,49.800000000000,   0.60800,
,,,50.000000000000,   0.60000,
,,,50.200000000000,   0.61600,
,,,50.400000000000,   0.60800,
,,,50.600000000000,   0.64800,
,,,50.800000000000,   0.60800,
,,,51.000000000000,   0.60000,
,,,51.200000000000,   0.59200,
,,,51.400000000000,   0.60000,
,,,51.600000000000,   0.60000,
,,,51.800000000000,   0.58400,
,,,52.000000000000,   0.59200,
,,,52.200000000000,   0.58400,
,,,52.400000000000,   0.58400,
,,,52.600000000000,   0.57600,
,,,52.800000000000,   0.57600,
,,,53.000000000000,   0.56800,
,,,53.200000000000,   0.56800,
,,,53.400000000000,   0.56800,
,,,53.600000000000,   0.56000,
,,,53.800000000000,   0.56000,
,,,54.000000000000,   0.55200,
,,,54.200000000000,   0.55200,
,,,54.400000000000,   0.55200,
,,,54.600000000000,   0.56000,
,,,54.800000000000,   0.54400,
,,,55.000000000000,   0.52800,
,,,55.200000000000,   0.54400,
,,,55.400000000000,   0.52800,
,,,55.600000000000,   0.53600,
,,,55.800000000000,   0.54400,
,,,56.000000000000,   0.54400,
,,,56.200000000000,   0.52800,
,,,56.400000000000,   0.52800,
,,,56.600000000000,   0.52000,
,,,56.800000000000,   0.53600,
,,,57.000000000000,   0.52800,
,,,57.200000000000,   0.52000,
,,,57.400000000000,   0.52000,
,,,57.600000000000,   0.52000,
,,,57.800000000000,   0.51200,
,,,58.000000000000,   0.47200,
,,,58.200000000000,   0.51200,
,,,58.400000000000,   0.49600,
,,,58.600000000000,   0.52000,
,,,58.800000000000,   0.51200,
,,,59.000000000000,   0.43200,
,,,59.200000000000,   0.52000,
,,,59.400000000000,   0.49600,
,,,59.600000000000,   0.49600,
,,,59.800000000000,   0.51200,
,,,60.000000000000,   0.48000,
,,,60.200000000000,   0.50400,
,,,60.400000000000,   0.48800,
,,,60.600000000000,   0.48800,
,,,60.800000000000,   0.48000,
,,,61.000000000000,   0.48800,
,,,61.200000000000,   0.49600,
,,,61.400000000000,   0.48000,
,,,61.600000000000,   0.48000,
,,,61.800000000000,   0.49600,
,,,62.000000000000,   0.47200,
,,,62.200000000000,   0.48000,
,,,62.400000000000,   0.48800,
,,,62.600000000000,   0.48000,
,,,62.800000000000,   0.48000,
,,,63.000000000000,   0.47200,
,,,63.200000000000,   0.46400,
,,,63.400000000000,   0.48000,
,,,63.600000000000,   0.47200,
,,,63.800000000000,   0.46400,
,,,64.000000000000,   0.48000,
,,,64.200000000000,   0.47200,
,,,64.400000000000,   0.47200,
,,,64.600000000000,   0.48000,
,,,64.800000000000,   0.46400,
,,,65.000000000000,   0.46400,
,,,65.200000000000,   0.46400,
,,,65.400000000000,   0.46400,
,,,65.600000000000,   0.45600,
,,,65.800000000000,   0.46400,
,,,66.000000000000,   0.46400,
,,,66.200000000000,   0.44800,
,,,66.400000000000,   0.45600,
,,,66.600000000000,   0.46400,
,,,66.800000000000,   0.45600,
,,,67.000000000000,   0.45600,
,,,67.200000000000,   0.45600,
,,,67.400000000000,   0.46400,
,,,67.600000000000,   0.44800,
,,,67.800000000000,   0.45600,
,,,68.000000000000,   0.44800,
,,,68.200000000000,   0.45600,
,,,68.400000000000,   0.44800,
,,,68.600000000000,   0.45600,
,,,68.800000000000,   0.44800,
,,,69.000000000000,   0.45600,
,,,69.200000000000,   0.44800,
,,,69.400000000000,   0.43200,
,,,69.600000000000,   0.43200,
,,,69.800000000000,   0.43200,
,,,70.000000000000,   0.45600,
,,,70.200000000000,   0.44000,
,,,70.400000000000,   0.42400,
,,,70.600000000000,   0.44800,
,,,70.800000000000,   0.44000,
,,,71.000000000000,   0.43200,
,,,71.200000000000,   0.43200,
,,,71.400000000000,   0.44000,
,,,71.600000000000,   0.43200,
,,,71.800000000000,   0.43200,
,,,72.000000000000,   0.43200,
,,,72.200000000000,   0.40800,
,,,72.400000000000,   0.43200,
,,,72.600000000000,   0.44000,
,,,72.800000000000,   0.42400,
,,,73.000000000000,   0.42400,
,,,73.200000000000,   0.42400,
,,,73.400000000000,   0.44000,
,,,73.600000000000,   0.44800,
,,,73.800000000000,   0.44000,
,,,74.000000000000,   0.43200,
,,,74.200000000000,   0.42400,
,,,74.400000000000,   0.43200,
,,,74.600000000000,   0.42400,
,,,74.800000000000,   0.41600,
,,,75.000000000000,   0.41600,
,,,75.200000000000,   0.42400,
,,,75.400000000000,   0.41600,
,,,75.600000000000,   0.43200,
,,,75.800000000000,   0.42400,
,,,76.000000000000,   0.41600,
,,,76.200000000000,   0.42400,
,,,76.400000000000,   0.43200,
,,,76.600000000000,   0.42400,
,,,76.800000000000,   0.42400,
,,,77.000000000000,   0.42400,
,,,77.200000000000,   0.41600,
,,,77.400000000000,   0.41600,
,,,77.600000000000,   0.42400,
,,,77.800000000000,   0.42400,
,,,78.000000000000,   0.42400,
,,,78.200000000000,   0.41600,
,,,78.400000000000,   0.40000,
,,,78.600000000000,   0.41600,
,,,78.800000000000,   0.41600,
,,,79.000000000000,   0.40800,
,,,79.200000000000,   0.41600,
,,,79.400000000000,   0.41600,
,,,79.600000000000,   0.40800,
,,,79.800000000000,   0.37600,
,,,80.000000000000,   0.40800,
,,,80.200000000000,   0.41600,
,,,80.400000000000,   0.40800,
,,,80.600000000000,   0.40800,
,,,80.800000000000,   0.40000,
,,,81.000000000000,   0.40000,
,,,81.200000000000,   0.40000,
,,,81.400000000000,   0.43200,
,,,81.600000000000,   0.41600,
,,,81.800000000000,   0.41600,
,,,82.000000000000,   0.44000,
,,,82.200000000000,   0.40800,
,,,82.400000000000,   0.40800,
,,,82.600000000000,   0.42400,
,,,82.800000000000,   0.40800,
,,,83.000000000000,   0.40000,
,,,83.200000000000,   0.41600,
,,,83.400000000000,   0.41600,
,,,83.600000000000,   0.40000,
,,,83.800000000000,   0.40000,
,,,84.000000000000,   0.42400,
,,,84.200000000000,   0.40000,
,,,84.400000000000,   0.32000,
,,,84.600000000000,   0.39200,
,,,84.800000000000,   0.40800,
,,,85.000000000000,   0.39200,
,,,85.200000000000,   0.40000,
,,,85.400000000000,   0.38400,
,,,85.600000000000,   0.40000,
,,,85.800000000000,   0.39200,
,,,86.000000000000,   0.38400,
,,,86.200000000000,   0.40000,
,,,86.400000000000,   0.40000,
,,,86.600000000000,   0.40000,
,,,86.800000000000,   0.40000,
,,,87.000000000000,   0.39200,
,,,87.200000000000,   0.40000,
,,,87.400000000000,   0.40800,
,,,87.600000000000,   0.40000,
,,,87.800000000000,   0.39200,
,,,88.000000000000,   0.40000,
,,,88.200000000000,   0.39200,
,,,88.400000000000,   0.54400,
,,,88.600000000000,   0.40000,
,,,88.800000000000,   0.40000,
,,,89.000000000000,   0.40000,
,,,89.200000000000,   0.40000,
,,,89.400000000000,   0.39200,
,,,89.600000000000,   0.40800,
,,,89.800000000000,   0.39200,
,,,90.000000000000,   0.39200,
,,,90.200000000000,   0.38400,
,,,90.400000000000,   0.40000,
,,,90.600000000000,   0.39200,
,,,90.800000000000,   0.40000,
,,,91.000000000000,   0.37600,
,,,91.200000000000,   0.39200,
,,,91.400000000000,   0.39200,
,,,91.600000000000,   0.39200,
,,,91.800000000000,   0.39200,
,,,92.000000000000,   0.39200,
,,,92.200000000000,   0.39200,
,,,92.400000000000,   0.39200,
,,,92.600000000000,   0.39200,
,,,92.800000000000,   0.40000,
,,,93.000000000000,   0.39200,
,,,93.200000000000,   0.40000,
,,,93.400000000000,   0.37600,
,,,93.600000000000,   0.39200,
,,,93.800000000000,   0.39200,
,,,94.000000000000,   0.38400,
,,,94.200000000000,   0.39200,
,,,94.400000000000,   0.38400,
,,,94.600000000000,   0.40000,
,,,94.800000000000,   0.39200,
,,,95.000000000000,   0.38400,
,,,95.200000000000,   0.38400,
,,,95.400000000000,   0.38400,
,,,95.600000000000,   0.39200,
,,,95.800000000000,   0.37600,
,,,96.000000000000,   0.38400,
,,,96.200000000000,   0.38400,
,,,96.400000000000,   0.37600,
,,,96.600000000000,   0.38400,
,,,96.800000000000,   0.38400,
,,,97.000000000000,   0.37600,
,,,97.200000000000,   0.38400,
,,,97.400000000000,   0.36800,
,,,97.600000000000,   0.37600,
,,,97.800000000000,   0.37600,
,,,98.000000000000,   0.38400,
,,,98.200000000000,   0.36800,
,,,98.400000000000,   0.38400,
,,,98.600000000000,   0.38400,
,,,98.800000000000,   0.38400,
,,,99.000000000000,   0.37600,
,,,99.200000000000,   0.37600,
,,,99.400000000000,   0.36800,
,,,99.600000000000,   0.38400,
,,,99.800000000000,   0.37600,
,,,100.000000000000,   0.36800,
,,,100.200000000000,   0.37600,
,,,100.400000000000,   0.39200,
,,,100.600000000000,   0.37600,
,,,100.800000000000,   0.36800,
,,,101.000000000000,   0.37600,
,,,101.200000000000,   0.38400,
,,,101.400000000000,   0.37600,
,,,101.600000000000,   0.37600,
,,,101.800000000000,   0.37600,
,,,102.000000000000,   0.36000,
,,,102.200000000000,   0.36800,
,,,102.400000000000,   0.37600,
,,,102.600000000000,   0.36800,
,,,102.800000000000,   0.36800,
,,,103.000000000000,   0.37600,
,,,103.200000000000,   0.36800,
,,,103.400000000000,   0.37600,
,,,103.600000000000,   0.37600,
,,,103.800000000000,   0.37600,
,,,104.000000000000,   0.38400,
,,,104.200000000000,   0.37600,
,,,104.400000000000,   0.37600,
,,,104.600000000000,   0.37600,
,,,104.800000000000,   0.37600,
,,,105.000000000000,   0.36000,
,,,105.200000000000,   0.36800,
,,,105.400000000000,   0.36800,
,,,105.600000000000,   0.38400,
,,,105.800000000000,   0.36000,
,,,106.000000000000,   0.38400,
,,,106.200000000000,   0.36800,
,,,106.400000000000,   0.37600,
,,,106.600000000000,   0.37600,
,,,106.800000000000,   0.36000,
,,,107.000000000000,   0.36000,
,,,107.200000000000,   0.36000,
,,,107.400000000000,   0.35200,
,,,107.600000000000,   0.36800,
,,,107.800000000000,   0.36000,
,,,108.000000000000,   0.36800,
,,,108.200000000000,   0.36800,
,,,108.400000000000,   0.36800,
,,,108.600000000000,   0.36000,
,,,108.800000000000,   0.37600,
,,,109.000000000000,   0.36800,
,,,109.200000000000,   0.37600,
,,,109.400000000000,   0.37600,
,,,109.600000000000,   0.35200,
,,,109.800000000000,   0.36800,
,,,110.000000000000,   0.34400,
,,,110.200000000000,   0.37600,
,,,110.400000000000,   0.32800,
,,,110.600000000000,   0.36800,
,,,110.800000000000,   0.36800,
,,,111.000000000000,   0.36800,
,,,111.200000000000,   0.35200,
,,,111.400000000000,   0.36000,
,,,111.600000000000,   0.37600,
,,,111.800000000000,   0.36800,
,,,112.000000000000,   0.36000,
,,,112.200000000000,   0.36800,
,,,112.400000000000,   0.37600,
,,,112.600000000000,   0.36800,
,,,112.800000000000,   0.36800,
,,,113.000000000000,   0.35200,
,,,113.200000000000,   0.35200,
,,,113.400000000000,   0.36000,
,,,113.600000000000,   0.36800,
,,,113.800000000000,   0.36000,
,,,114.000000000000,   0.35200,
,,,114.200000000000,   0.37600,
,,,114.400000000000,   0.36000,
,,,114.600000000000,   0.36800,
,,,114.800000000000,   0.35200,
,,,115.000000000000,   0.36000,
,,,115.200000000000,   0.36800,
,,,115.400000000000,   0.36000,
,,,115.600000000000,   0.36800,
,,,115.800000000000,   0.35200,
,,,116.000000000000,   0.36000,
,,,116.200000000000,   0.36800,
,,,116.400000000000,   0.36000,
,,,116.600000000000,   0.36000,
,,,116.800000000000,   0.36000,
,,,117.000000000000,   0.34400,
,,,117.200000000000,   0.36000,
,,,117.400000000000,   0.36000,
,,,117.600000000000,   0.35200,
,,,117.800000000000,   0.36000,
,,,118.000000000000,   0.37600,
,,,118.200000000000,   0.36000,
,,,118.400000000000,   0.36000,
,,,118.600000000000,   0.35200,
,,,118.800000000000,   0.36000,
,,,119.000000000000,   0.36000,
,,,119.200000000000,   0.36000,
,,,119.400000000000,   0.36000,
,,,119.600000000000,   0.36000,
,,,119.800000000000,   0.36800,
,,,120.000000000000,   0.36800,
,,,120.200000000000,   0.36800,
,,,120.400000000000,   0.36000,
,,,120.600000000000,   0.36000,
,,,120.800000000000,   0.36000,
,,,121.000000000000,   0.37600,
,,,121.200000000000,   0.35200,
,,,121.400000000000,   0.36000,
,,,121.600000000000,   0.36000,
,,,121.800000000000,   0.36000,
,,,122.000000000000,   0.36000,
,,,122.200000000000,   0.37600,
,,,122.400000000000,   0.34400,
,,,122.600000000000,   0.36000,
,,,122.800000000000,   0.36000,
,,,123.000000000000,   0.35200,
,,,123.200000000000,   0.35200,
,,,123.400000000000,   0.35200,
,,,123.600000000000,   0.36000,
,,,123.800000000000,   0.36000,
,,,124.000000000000,   0.36000,
,,,124.200000000000,   0.35200,
,,,124.400000000000,   0.37600,
,,,124.600000000000,   0.36000,
,,,124.800000000000,   0.35200,
,,,125.000000000000,   0.35200,
,,,125.200000000000,   0.36000,
,,,125.400000000000,   0.36000,
,,,125.600000000000,   0.36000,
,,,125.800000000000,   0.36000,
