CDSD/pratica_5/Resfriamento/1V/F0000CH1.CSV

Record Length,2.500000e+03,,   0.000000000000,   0.61600,
Sample Interval,2.000000e-01,,   0.200000000000,   0.62400,
Trigger Point,0.000000000000e+00,,   0.400000000000,   0.61600,
,,,   0.600000000000,   0.60000,
,,,   0.800000000000,   0.62400,
,,,   1.000000000000,   0.61600,
Source,CH1,,   1.200000000000,   0.60800,
Vertical Units,V,,   1.400000000000,   0.62400,
Vertical Scale,2.000000e-01,,   1.600000000000,   0.62400,
Vertical Offset,0.000000e+00,,   1.800000000000,   0.61600,
Horizontal Units,s,,   2.000000000000,   0.61600,
Horizontal Scale,5.000000e+01,,   2.200000000000,   0.60800,
Pt Fmt,Y,,   2.400000000000,   0.60800,
Yzero,0.000000e+00,,   2.600000000000,   0.61600,
Probe Atten,1.000000e+01,,   2.800000000000,   0.60800,
Model Number,TBS1062,,   3.000000000000,   0.60800,
Serial Number,C011495,,   3.200000000000,   0.61600,
Firmware Version,FV:v26.01,,   3.400000000000,   0.62400,
,,,3.600000000000,   0.60800,
,,,3.800000000000,   0.62400,
,,,4.000000000000,   0.60800,
,,,4.200000000000,   0.61600,
,,,4.400000000000,   0.61600,
,,,4.600000000000,   0.60000,
,,,4.800000000000,   0.62400,
,,,5.000000000000,   0.60800,
,,,5.200000000000,   0.61600,
,,,5.400000000000,   0.61600,
,,,5.600000000000,   0.61600,
,,,5.800000000000,   0.60800,
,,,6.000000000000,   0.60800,
,,,6.200000000000,   0.62400,
,,,6.400000000000,   0.60800,
,,,6.600000000000,   0.61600,
,,,6.800000000000,   0.62400,
,,,7.000000000000,   0.61600,
,,,7.200000000000,   0.62400,
,,,7.400000000000,   0.62400,
,,,7.600000000000,   0.61600,
,,,7.800000000000,   0.61600,
,,,8.000000000000,   0.61600,
,,,8.200000000000,   0.61600,
,,,8.400000000000,   0.61600,
,,,8.600000000000,   0.62400,
,,,8.800000000000,   0.62400,
,,,9.000000000000,   0.60800,
,,,9.200000000000,   0.64000,
,,,9.400000000000,   0.61600,
,,,9.600000000000,   0.61600,
,,,9.800000000000,   0.64000,
,,,10.000000000000,   0.62400,
,,,10.200000000000,   0.62400,
,,,10.400000000000,   0.63200,
,,,10.600000000000,   0.58400,
,,,10.800000000000,   0.64000,
,,,11.000000000000,   0.62400,
,,,11.200000000000,   0.60000,
,,,11.400000000000,   0.61600,
,,,11.600000000000,   0.61600,
,,,11.800000000000,   0.61600,
,,,12.000000000000,   0.60800,
,,,12.200000000000,   0.61600,
,,,12.400000000000,   0.62400,
,,,12.600000000000,   0.57600,
,,,12.800000000000,   0.60800,
,,,13.000000000000,   0.63200,
,,,13.200000000000,   0.62400,
,,,13.400000000000,   0.61600,
,,,13.600000000000,   0.63200,
,,,13.800000000000,   0.60800,
,,,14.000000000000,   0.62400,
,,,14.200000000000,   0.60000,
,,,14.400000000000,   0.61600,
,,,14.600000000000,   0.61600,
,,,14.800000000000,   0.62400,
,,,15.000000000000,   0.62400,
,,,15.200000000000,   0.61600,
,,,15.400000000000,   0.60800,
,,,15.600000000000,   0.61600,
,,,15.800000000000,   0.60800,
,,,16.000000000000,   0.62400,
,,,16.200000000000,   0.62400,
,,,16.400000000000,   0.62400,
,,,16.600000000000,   0.61600,
,,,16.800000000000,   0.60800,
,,,17.000000000000,   0.60800,
,,,17.200000000000,   0.60800,
,,,17.400000000000,   0.60800,
,,,17.600000000000,   0.61600,
,,,17.800000000000,   0.59200,
,,,18.000000000000,   0.61600,
,,,18.200000000000,   0.61600,
,,,18.400000000000,   0.62400,
,,,18.600000000000,   0.63200,
,,,18.800000000000,   0.63200,
,,,19.000000000000,   0.62400,
,,,19.200000000000,   0.66400,
,,,19.400000000000,   0.62400,
,,,19.600000000000,   0.71200,
,,,19.800000000000,   0.62400,
,,,20.000000000000,   0.60800,
,,,20.200000000000,   0.62400,
,,,20.400000000000,   0.61600,
,,,20.600000000000,   0.62400,
,,,20.800000000000,   0.62400,
,,,21.000000000000,   0.63200,
,,,21.200000000000,   0.61600,
,,,21.400000000000,   0.56800,
,,,21.600000000000,   0.62400,
,,,21.800000000000,   0.60800,
,,,22.000000000000,   0.62400,
,,,22.200000000000,   0.62400,
,,,22.400000000000,   0.60800,
,,,22.600000000000,   0.62400,
,,,22.800000000000,   0.61600,
,,,23.000000000000,   0.61600,
,,,23.200000000000,   0.61600,
,,,23.400000000000,   0.61600,
,,,23.600000000000,   0.61600,
,,,23.800000000000,   0.60800,
,,,24.000000000000,   0.63200,
,,,24.200000000000,   0.62400,
,,,24.400000000000,   0.61600,
,,,24.600000000000,   0.60800,
,,,24.800000000000,   0.62400,
,,,25.000000000000,   0.63200,
,,,25.200000000000,   0.64000,
,,,25.400000000000,   0.62400,
,,,25.600000000000,   0.63200,
,,,25.800000000000,   0.64000,
,,,26.000000000000,   0.61600,
,,,26.200000000000,   0.62400,
,,,26.400000000000,   0.61600,
,,,26.600000000000,   0.62400,
,,,26.800000000000,   0.62400,
,,,27.000000000000,   0.62400,
,,,27.200000000000,   0.62400,
,,,27.400000000000,   0.62400,
,,,27.600000000000,   0.63200,
,,,27.800000000000,   0.62400,
,,,28.000000000000,   0.61600,
,,,28.200000000000,   0.63200,
,,,28.400000000000,   0.63200,
,,,28.600000000000,   0.62400,
,,,28.800000000000,   0.61600,
,,,29.000000000000,   0.63200,
,,,29.200000000000,   0.62400,
,,,29.400000000000,   0.62400,
,,,29.600000000000,   0.62400,
,,,29.800000000000,   0.61600,
,,,30.000000000000,   0.62400,
,,,30.200000000000,   0.62400,
,,,30.400000000000,   0.61600,
,,,30.600000000000,   0.62400,
,,,30.800000000000,   0.61600,
,,,31.000000000000,   0.61600,
,,,31.200000000000,   0.61600,
,,,31.400000000000,   0.62400,
,,,31.600000000000,   0.60000,
,,,31.800000000000,   0.62400,
,,,32.000000000000,   0.61600,
,,,32.200000000000,   0.62400,
,,,32.400000000000,   0.60800,
,,,32.600000000000,   0.61600,
,,,32.800000000000,   0.63200,
,,,33.000000000000,   0.62400,
,,,33.200000000000,   0.61600,
,,,33.400000000000,   0.60800,
,,,33.600000000000,   0.61600,
,,,33.800000000000,   0.62400,
,,,34.000000000000,   0.62400,
,,,34.200000000000,   0.63200,
,,,34.400000000000,   0.61600,
,,,34.600000000000,   0.62400,
,,,34.800000000000,   0.62400,
,,,35.000000000000,   0.60800,
,,,35.200000000000,   0.61600,
,,,35.400000000000,   0.62400,
,,,35.600000000000,   0.61600,
,,,35.800000000000,   0.60800,
,,,36.000000000000,   0.62400,
,,,36.200000000000,   0.62400,
,,,36.400000000000,   0.62400,
,,,36.600000000000,   0.62400,
,,,36.800000000000,   0.62400,
,,,37.000000000000,   0.65600,
,,,37.200000000000,   0.63200,
,,,37.400000000000,   0.61600,
,,,37.600000000000,   0.62400,
,,,37.800000000000,   0.64000,
,,,38.000000000000,   0.61600,
,,,38.200000000000,   0.61600,
,,,38.400000000000,   0.62400,
,,,38.600000000000,   0.63200,
,,,38.800000000000,   0.62400,
,,,39.000000000000,   0.61600,
,,,39.200000000000,   0.62400,
,,,39.400000000000,   0.61600,
,,,39.600000000000,   0.62400,
,,,39.800000000000,   0.62400,
,,,40.000000000000,   0.62400,
,,,40.200000000000,   0.60800,
,,,40.400000000000,   0.61600,
,,,40.600000000000,   0.64000,
,,,40.800000000000,   0.62400,
,,,41.000000000000,   0.61600,
,,,41.200000000000,   0.63200,
,,,41.400000000000,   0.63200,
,,,41.600000000000,   0.60000,
,,,41.800000000000,   0.61600,
,,,42.000000000000,   0.57600,
,,,42.200000000000,   0.58400,
,,,42.400000000000,   0.60800,
,,,42.600000000000,   0.64800,
,,,42.800000000000,   0.60800,
,,,43.000000000000,   0.60000,
,,,43.200000000000,   0.63200,
,,,43.400000000000,   0.60800,
,,,43.600000000000,   0.63200,
,,,43.800000000000,   0.62400,
,,,44.000000000000,   0.59200,
,,,44.200000000000,   0.64000,
,,,44.400000000000,   0.60800,
,,,44.600000000000,   0.63200,
,,,44.800000000000,   0.62400,
,,,45.000000000000,   0.62400,
,,,45.200000000000,   0.60800,
,,,45.400000000000,   0.64000,
,,,45.600000000000,   0.68000,
,,,45.800000000000,   0.63200,
,,,46.000000000000,   0.61600,
,,,46.200000000000,   0.67200,
,,,46.400000000000,   0.63200,
,,,46.600000000000,   0.60800,
,,,46.800000000000,   0.62400,
,,,47.000000000000,   0.62400,
,,,47.200000000000,   0.64000,
,,,47.400000000000,   0.62400,
,,,47.600000000000,   0.60800,
,,,47.800000000000,   0.63200,
,,,48.000000000000,   0.60800,
,,,48.200000000000,   0.65600,
,,,48.400000000000,   0.60800,
,,,48.600000000000,   0.63200,
,,,48.800000000000,   0.64000,
,,,49.000000000000,   0.63200,
,,,49.200000000000,   0.64000,
,,,49.400000000000,   0.60000,
,,,49.600000000000,   0.63200,
,,,49.800000000000,   0.63200,
,,,50.000000000000,   0.66400,
,,,50.200000000000,   0.65600,
,,,50.400000000000,   0.61600,
,,,50.600000000000,   0.65600,
,,,50.800000000000,   0.64800,
,,,51.000000000000,   0.60800,
,,,51.200000000000,   0.62400,
,,,51.400000000000,   0.61600,
,,,51.600000000000,   0.60800,
,,,51.800000000000,   0.68800,
,,,52.000000000000,   0.64000,
,,,52.200000000000,   0.63200,
,,,52.400000000000,   0.64000,
,,,52.600000000000,   0.62400,
,,,52.800000000000,   0.60800,
,,,53.000000000000,   0.64800,
,,,53.200000000000,   0.64000,
,,,53.400000000000,   0.63200,
,,,53.600000000000,   0.60800,
,,,53.800000000000,   0.60800,
,,,54.000000000000,   0.62400,
,,,54.200000000000,   0.61600,
,,,54.400000000000,   0.59200,
,,,54.600000000000,   0.60800,
,,,54.800000000000,   0.60800,
,,,55.000000000000,   0.59200,
,,,55.200000000000,   0.65600,
,,,55.400000000000,   0.60000,
,,,55.600000000000,   0.61600,
,,,55.800000000000,   0.60800,
,,,56.000000000000,   0.50400,
,,,56.200000000000,   0.64800,
,,,56.400000000000,   0.60800,
,,,56.600000000000,   0.61600,
,,,56.800000000000,   0.63200,
,,,57.000000000000,   0.62400,
,,,57.200000000000,   0.62400,
,,,57.400000000000,   0.61600,
,,,57.600000000000,   0.61600,
,,,57.800000000000,   0.63200,
,,,58.000000000000,   0.62400,
,,,58.200000000000,   0.63200,
,,,58.400000000000,   0.64000,
,,,58.600000000000,   0.64800,
,,,58.800000000000,   0.65600,
,,,59.000000000000,   0.63200,
,,,59.200000000000,   0.64000,
,,,59.400000000000,   0.62400,
,,,59.600000000000,   0.56000,
,,,59.800000000000,   0.60800,
,,,60.000000000000,   0.62400,
,,,60.200000000000,   0.63200,
,,,60.400000000000,   0.63200,
,,,60.600000000000,   0.63200,
,,,60.800000000000,   0.60800,
,,,61.000000000000,   0.60800,
,,,61.200000000000,   0.60000,
,,,61.400000000000,   0.64800,
,,,61.600000000000,   0.61600,
,,,61.800000000000,   0.59200,
,,,62.000000000000,   0.62400,
,,,62.200000000000,   0.63200,
,,,62.400000000000,   0.61600,
,,,62.600000000000,   0.62400,
,,,62.800000000000,   0.62400,
,,,63.000000000000,   0.60800,
,,,63.200000000000,   0.68000,
,,,63.400000000000,   0.61600,
,,,63.600000000000,   0.61600,
,,,63.800000000000,   0.64000,
,,,64.000000000000,   0.63200,
,,,64.200000000000,   0.61600,
,,,64.400000000000,   0.63200,
,,,64.600000000000,   0.64000,
,,,64.800000000000,   0.63200,
,,,65.000000000000,   0.63200,
,,,65.200000000000,   0.64000,
,,,65.400000000000,   0.62400,
,,,65.600000000000,   0.63200,
,,,65.800000000000,   0.63200,
,,,66.000000000000,   0.63200,
,,,66.200000000000,   0.62400,
,,,66.400000000000,   0.62400,
,,,66.600000000000,   0.62400,
,,,66.800000000000,   0.62400,
,,,67.000000000000,   0.62400,
,,,67.200000000000,   0.63200,
,,,67.400000000000,   0.56000,
,,,67.600000000000,   0.63200,
,,,67.800000000000,   0.62400,
,,,68.000000000000,   0.63200,
,,,68.200000000000,   0.62400,
,,,68.400000000000,   0.64000,
,,,68.600000000000,   0.62400,
,,,68.800000000000,   0.62400,
,,,69.000000000000,   0.61600,
,,,69.200000000000,   0.63200,
,,,69.400000000000,   0.63200,
,,,69.600000000000,   0.62400,
,,,69.800000000000,   0.62400,
,,,70.000000000000,   0.60000,
,,,70.200000000000,   0.62400,
,,,70.400000000000,   0.61600,
,,,70.600000000000,   0.61600,
,,,70.800000000000,   0.61600,
,,,71.000000000000,   0.60000,
,,,71.200000000000,   0.62400,
,,,71.400000000000,   0.62400,
,,,71.600000000000,   0.60800,
,,,71.800000000000,   0.63200,
,,,72.000000000000,   0.60800,
,,,72.200000000000,   0.60000,
,,,72.400000000000,   0.61600,
,,,72.600000000000,   0.60000,
,,,72.800000000000,   0.61600,
,,,73.000000000000,   0.60800,
,,,73.200000000000,   0.61600,
,,,73.400000000000,   0.60800,
,,,73.600000000000,   0.62400,
,,,73.800000000000,   0.60800,
,,,74.000000000000,   0.60000,
,,,74.200000000000,   0.60800,
,,,74.400000000000,   0.60800,
,,,74.600000000000,   0.60000,
,,,74.800000000000,   0.60000,
,,,75.000000000000,   0.60800,
,,,75.200000000000,   0.61600,
,,,75.400000000000,   0.60000,
,,,75.600000000000,   0.60000,
,,,75.800000000000,   0.59200,
,,,76.000000000000,   0.60000,
,,,76.200000000000,   0.60000,
,,,76.400000000000,   0.59200,
,,,76.600000000000,   0.58400,
,,,76.800000000000,   0.60800,
,,,77.000000000000,   0.60000,
,,,77.200000000000,   0.60000,
,,,77.400000000000,   0.56800,
,,,77.600000000000,   0.60000,
,,,77.800000000000,   0.59200,
,,,78.000000000000,   0.58400,
,,,78.200000000000,   0.60800,
,,,78.400000000000,   0.60000,
,,,78.600000000000,   0.58400,
,,,78.800000000000,   0.60000,
,,,79.000000000000,   0.58400,
,,,79.200000000000,   0.58400,
,,,79.400000000000,   0.59200,
,,,79.600000000000,   0.59200,
,,,79.800000000000,   0.59200,
,,,80.000000000000,   0.59200,
,,,80.200000000000,   0.59200,
,,,80.400000000000,   0.56800,
,,,80.600000000000,   0.58400,
,,,80.800000000000,   0.59200,
,,,81.000000000000,   0.58400,
,,,81.200000000000,   0.58400,
,,,81.400000000000,   0.59200,
,,,81.600000000000,   0.57600,
,,,81.800000000000,   0.59200,
,,,82.000000000000,   0.60000,
,,,82.200000000000,   0.56800,
,,,82.400000000000,   0.59200,
,,,82.600000000000,   0.57600,
,,,82.800000000000,   0.57600,
,,,83.000000000000,   0.60000,
,,,83.200000000000,   0.58400,
,,,83.400000000000,   0.57600,
,,,83.600000000000,   0.58400,
,,,83.800000000000,   0.57600,
,,,84.000000000000,   0.59200,
,,,84.200000000000,   0.58400,
,,,84.400000000000,   0.57600,
,,,84.600000000000,   0.60000,
,,,84.800000000000,   0.56800,
,,,85.000000000000,   0.58400,
,,,85.200000000000,   0.58400,
,,,85.400000000000,   0.57600,
,,,85.600000000000,   0.58400,
,,,85.800000000000,   0.57600,
,,,86.000000000000,   0.56000,
,,,86.200000000000,   0.58400,
,,,86.400000000000,   0.58400,
,,,86.600000000000,   0.57600,
,,,86.800000000000,   0.57600,
,,,87.000000000000,   0.58400,
,,,87.200000000000,   0.57600,
,,,87.400000000000,   0.56800,
,,,87.600000000000,   0.58400,
,,,87.800000000000,   0.59200,
,,,88.000000000000,   0.59200,
,,,88.200000000000,   0.57600,
,,,88.400000000000,   0.56000,
,,,88.600000000000,   0.58400,
,,,88.800000000000,   0.57600,
,,,89.000000000000,   0.58400,
,,,89.200000000000,   0.57600,
,,,89.400000000000,   0.56800,
,,,89.600000000000,   0.57600,
,,,89.800000000000,   0.57600,
,,,90.000000000000,   0.57600,
,,,90.200000000000,   0.56800,
,,,90.400000000000,   0.56800,
,,,90.600000000000,   0.56800,
,,,90.800000000000,   0.56000,
,,,91.000000000000,   0.56000,
,,,91.200000000000,   0.57600,
,,,91.400000000000,   0.56800,
,,,91.600000000000,   0.58400,
,,,91.800000000000,   0.56800,
,,,92.000000000000,   0.58400,
,,,92.200000000000,   0.55200,
,,,92.400000000000,   0.54400,
,,,92.600000000000,   0.56800,
,,,92.800000000000,   0.57600,
,,,93.000000000000,   0.56800,
,,,93.200000000000,   0.56000,
,,,93.400000000000,   0.57600,
,,,93.600000000000,   0.58400,
,,,93.800000000000,   0.56800,
,,,94.000000000000,   0.57600,
,,,94.200000000000,   0.56000,
,,,94.400000000000,   0.56800,
,,,94.600000000000,   0.57600,
,,,94.800000000000,   0.55200,
,,,95.000000000000,   0.56000,
,,,95.200000000000,   0.56000,
,,,95.400000000000,   0.56000,
,,,95.600000000000,   0.56800,
,,,95.800000000000,   0.56800,
,,,96.000000000000,   0.57600,
,,,96.200000000000,   0.56800,
,,,96.400000000000,   0.56800,
,,,96.600000000000,   0.58400,
,,,96.800000000000,   0.56800,
,,,97.000000000000,   0.58400,
,,,97.200000000000,   0.56000,
,,,97.400000000000,   0.56000,
,,,97.600000000000,   0.56800,
,,,97.800000000000,   0.56000,
,,,98.000000000000,   0.56800,
,,,98.200000000000,   0.56800,
,,,98.400000000000,   0.56000,
,,,98.600000000000,   0.56800,
,,,98.800000000000,   0.56000,
,,,99.000000000000,   0.54400,
,,,99.200000000000,   0.56800,
,,,99.400000000000,   0.55200,
,,,99.600000000000,   0.56800,
,,,99.800000000000,   0.57600,
,,,100.000000000000,   0.56000,
,,,100.200000000000,   0.56800,
,,,100.400000000000,   0.55200,
,,,100.600000000000,   0.56000,
,,,100.800000000000,   0.56000,
,,,101.000000000000,   0.56000,
,,,101.200000000000,   0.55200,
,,,101.400000000000,   0.56000,
,,,101.600000000000,   0.56000,
,,,101.800000000000,   0.56000,
,,,102.000000000000,   0.56000,
,,,102.200000000000,   0.57600,
,,,102.400000000000,   0.56000,
,,,102.600000000000,   0.56000,
,,,102.800000000000,   0.55200,
,,,103.000000000000,   0.54400,
,,,103.200000000000,   0.56000,
,,,103.400000000000,   0.57600,
,,,103.600000000000,   0.56000,
,,,103.800000000000,   0.56000,
,,,104.000000000000,   0.57600,
,,,104.200000000000,   0.56800,
,,,104.400000000000,   0.56000,
,,,104.600000000000,   0.54400,
,,,104.800000000000,   0.53600,
,,,105.000000000000,   0.54400,
,,,105.200000000000,   0.56000,
,,,105.400000000000,   0.55200,
,,,105.600000000000,   0.56000,
,,,105.800000000000,   0.56800,
,,,106.000000000000,   0.58400,
,,,106.200000000000,   0.55200,
,,,106.400000000000,   0.56800,
,,,106.600000000000,   0.53600,
,,,106.800000000000,   0.56000,
,,,107.000000000000,   0.56800,
,,,107.200000000000,   0.54400,
,,,107.400000000000,   0.56000,
,,,107.600000000000,   0.56000,
,,,107.800000000000,   0.56000,
,,,108.000000000000,   0.56000,
,,,108.200000000000,   0.55200,
,,,108.400000000000,   0.54400,
,,,108.600000000000,   0.56000,
,,,108.800000000000,   0.54400,
,,,109.000000000000,   0.55200,
,,,109.200000000000,   0.55200,
,,,109.400000000000,   0.55200,
,,,109.600000000000,   0.55200,
,,,109.800000000000,   0.55200,
,,,110.000000000000,   0.55200,
,,,110.200000000000,   0.55200,
,,,110.400000000000,   0.54400,
,,,110.600000000000,   0.55200,
,,,110.800000000000,   0.53600,
,,,111.000000000000,   0.54400,
,,,111.200000000000,   0.54400,
,,,111.400000000000,   0.52800,
,,,111.600000000000,   0.55200,
,,,111.800000000000,   0.55200,
,,,112.000000000000,   0.56800,
,,,112.200000000000,   0.55200,
,,,112.400000000000,   0.56800,
,,,112.600000000000,   0.52800,
,,,112.800000000000,   0.57600,
,,,113.000000000000,   0.54400,
,,,113.200000000000,   0.55200,
,,,113.400000000000,   0.54400,
,,,113.600000000000,   0.55200,
,,,113.800000000000,   0.54400,
,,,114.000000000000,   0.55200,
,,,114.200000000000,   0.53600,
,,,114.400000000000,   0.56000,
,,,114.600000000000,   0.56000,
,,,114.800000000000,   0.53600,
,,,115.000000000000,   0.53600,
,,,115.200000000000,   0.56000,
,,,115.400000000000,   0.56000,
,,,115.600000000000,   0.56800,
,,,115.800000000000,   0.53600,
,,,116.000000000000,   0.54400,
,,,116.200000000000,   0.53600,
,,,116.400000000000,   0.52800,
,,,116.600000000000,   0.52800,
,,,116.800000000000,   0.56000,
,,,117.000000000000,   0.54400,
,,,117.200000000000,   0.50400,
,,,117.400000000000,   0.55200,
,,,117.600000000000,   0.55200,
,,,117.800000000000,   0.55200,
,,,118.000000000000,   0.56000,
,,,118.200000000000,   0.55200,
,,,118.400000000000,   0.54400,
,,,118.600000000000,   0.55200,
,,,118.800000000000,   0.54400,
,,,119.000000000000,   0.55200,
,,,119.200000000000,   0.54400,
,,,119.400000000000,   0.56000,
,,,119.600000000000,   0.54400,
,,,119.800000000000,   0.57600,
,,,120.000000000000,   0.52000,
,,,120.200000000000,   0.53600,
,,,120.400000000000,   0.54400,
,,,120.600000000000,   0.53600,
,,,120.800000000000,   0.55200,
,,,121.000000000000,   0.54400,
,,,121.200000000000,   0.53600,
,,,121.400000000000,   0.53600,
,,,121.600000000000,   0.49600,
,,,121.800000000000,   0.54400,
,,,122.000000000000,   0.52800,
,,,122.200000000000,   0.56000,
,,,122.400000000000,   0.54400,
,,,122.600000000000,   0.52800,
,,,122.800000000000,   0.52000,
,,,123.000000000000,   0.54400,
,,,123.200000000000,   0.55200,
,,,123.400000000000,   0.52000,
,,,123.600000000000,   0.54400,
,,,123.800000000000,   0.54400,
,,,124.000000000000,   0.56800,
,,,124.200000000000,   0.54400,
,,,124.400000000000,   0.55200,
,,,124.600000000000,   0.56000,
,,,124.800000000000,   0.56800,
,,,125.000000000000,   0.53600,
,,,125.200000000000,   0.53600,
,,,125.400000000000,   0.50400,
,,,125.600000000000,   0.53600,
,,,125.800000000000,   0.53600,
