CDSD/pratica_5/Resfriamento/3V/F0000CH1.CSV

Record Length,2.500000e+03,,   0.000000000000,   0.61600,
Sample Interval,2.000000e-01,,   0.200000000000,   0.63200,
Trigger Point,0.000000000000e+00,,   0.400000000000,   0.62400,
,,,   0.600000000000,   0.63200,
,,,   0.800000000000,   0.62400,
,,,   1.000000000000,   0.64000,
Source,CH1,,   1.200000000000,   0.63200,
Vertical Units,V,,   1.400000000000,   0.61600,
Vertical Scale,2.000000e-01,,   1.600000000000,   0.62400,
Vertical Offset,0.000000e+00,,   1.800000000000,   0.62400,
Horizontal Units,s,,   2.000000000000,   0.62400,
Horizontal Scale,5.000000e+01,,   2.200000000000,   0.63200,
Pt Fmt,Y,,   2.400000000000,   0.67200,
Yzero,0.000000e+00,,   2.600000000000,   0.60000,
Probe Atten,1.000000e+01,,   2.800000000000,   0.61600,
Model Number,TBS1062,,   3.000000000000,   0.62400,
Serial Number,C011495,,   3.200000000000,   0.62400,
Firmware Version,FV:v26.01,,   3.400000000000,   0.62400,
,,,3.600000000000,   0.63200,
,,,3.800000000000,   0.63200,
,,,4.000000000000,   0.62400,
,,,4.200000000000,   0.62400,
,,,4.400000000000,   0.62400,
,,,4.600000000000,   0.63200,
,,,4.800000000000,   0.63200,
,,,5.000000000000,   0.63200,
,,,5.200000000000,   0.62400,
,,,5.400000000000,   0.62400,
,,,5.600000000000,   0.60800,
,,,5.800000000000,   0.66400,
,,,6.000000000000,   0.64000,
,,,6.200000000000,   0.71200,
,,,6.400000000000,   0.63200,
,,,6.600000000000,   0.63200,
,,,6.800000000000,   0.65600,
,,,7.000000000000,   0.64800,
,,,7.200000000000,   0.65600,
,,,7.400000000000,   0.61600,
,,,7.600000000000,   0.63200,
,,,7.800000000000,   0.60800,
,,,8.000000000000,   0.60800,
,,,8.200000000000,   0.56800,
,,,8.400000000000,   0.58400,
,,,8.600000000000,   0.62400,
,,,8.800000000000,   0.60800,
,,,9.000000000000,   0.64000,
,,,9.200000000000,   0.64800,
,,,9.400000000000,   0.63200,
,,,9.600000000000,   0.57600,
,,,9.800000000000,   0.61600,
,,,10.000000000000,   0.62400,
,,,10.200000000000,   0.66400,
,,,10.400000000000,   0.63200,
,,,10.600000000000,   0.61600,
,,,10.800000000000,   0.63200,
,,,11.000000000000,   0.64800,
,,,11.200000000000,   0.60800,
,,,11.400000000000,   0.62400,
,,,11.600000000000,   0.71200,
,,,11.800000000000,   0.60800,
,,,12.000000000000,   0.61600,
,,,12.200000000000,   0.63200,
,,,12.400000000000,   0.62400,
,,,12.600000000000,   0.64800,
,,,12.800000000000,   0.64000,
,,,13.000000000000,   0.62400,
,,,13.200000000000,   0.64800,
,,,13.400000000000,   0.65600,
,,,13.600000000000,   0.62400,
,,,13.800000000000,   0.62400,
,,,14.000000000000,   0.61600,
,,,14.200000000000,   0.63200,
,,,14.400000000000,   0.63200,
,,,14.600000000000,   0.62400,
,,,14.800000000000,   0.61600,
,,,15.000000000000,   0.64000,
,,,15.200000000000,   0.63200,
,,,15.400000000000,   0.63200,
,,,15.600000000000,   0.64000,
,,,15.800000000000,   0.62400,
,,,16.000000000000,   0.65600,
,,,16.200000000000,   0.63200,
,,,16.400000000000,   0.63200,
,,,16.600000000000,   0.63200,
,,,16.800000000000,   0.63200,
,,,17.000000000000,   0.63200,
,,,17.200000000000,   0.63200,
,,,17.400000000000,   0.64800,
,,,17.600000000000,   0.64800,
,,,17.800000000000,   0.62400,
,,,18.000000000000,   0.62400,
,,,18.200000000000,   0.63200,
,,,18.400000000000,   0.63200,
,,,18.600000000000,   0.64000,
,,,18.800000000000,   0.64000,
,,,19.000000000000,   0.64000,
,,,19.200000000000,   0.63200,
,,,19.400000000000,   0.62400,
,,,19.600000000000,   0.64800,
,,,19.800000000000,   0.64000,
,,,20.000000000000,   0.64000,
,,,20.200000000000,   0.63200,
,,,20.400000000000,   0.64800,
,,,20.600000000000,   0.64800,
,,,20.800000000000,   0.62400,
,,,21.000000000000,   0.62400,
,,,21.200000000000,   0.64000,
,,,21.400000000000,   0.64000,
,,,21.600000000000,   0.64800,
,,,21.800000000000,   0.68000,
,,,22.000000000000,   0.62400,
,,,22.200000000000,   0.63200,
,,,22.400000000000,   0.63200,
,,,22.600000000000,   0.64800,
,,,22.800000000000,   0.61600,
,,,23.000000000000,   0.64800,
,,,23.200000000000,   0.60800,
,,,23.400000000000,   0.63200,
,,,23.600000000000,   0.64000,
,,,23.800000000000,   0.63200,
,,,24.000000000000,   0.64000,
,,,24.200000000000,   0.64000,
,,,24.400000000000,   0.62400,
,,,24.600000000000,   0.64000,
,,,24.800000000000,   0.62400,
,,,25.000000000000,   0.64000,
,,,25.200000000000,   0.63200,
,,,25.400000000000,   0.57600,
,,,25.600000000000,   0.62400,
,,,25.800000000000,   0.64000,
,,,26.000000000000,   0.65600,
,,,26.200000000000,   0.63200,
,,,26.400000000000,   0.63200,
,,,26.600000000000,   0.64800,
,,,26.800000000000,   0.64000,
,,,27.000000000000,   0.64000,
,,,27.200000000000,   0.64000,
,,,27.400000000000,   0.62400,
,,,27.600000000000,   0.62400,
,,,27.800000000000,   0.59200,
,,,28.000000000000,   0.63200,
,,,28.200000000000,   0.63200,
,,,28.400000000000,   0.62400,
,,,28.600000000000,   0.61600,
,,,28.800000000000,   0.63200,
,,,29.000000000000,   0.63200,
,,,29.200000000000,   0.64000,
,,,29.400000000000,   0.62400,
,,,29.600000000000,   0.64000,
,,,29.800000000000,   0.64000,
,,,30.000000000000,   0.64800,
,,,30.200000000000,   0.63200,
,,,30.400000000000,   0.64800,
,,,30.600000000000,   0.80000,
,,,30.800000000000,   0.65600,
,,,31.000000000000,   0.63200,
,,,31.200000000000,   0.62400,
,,,31.400000000000,   0.62400,
,,,31.600000000000,   0.61600,
,,,31.800000000000,   0.61600,
,,,32.000000000000,   0.66400,
,,,32.200000000000,   0.60800,
,,,32.400000000000,   0.63200,
,,,32.600000000000,   0.65600,
,,,32.800000000000,   0.63200,
,,,33.000000000000,   0.63200,
,,,33.200000000000,   0.64800,
,,,33.400000000000,   0.62400,
,,,33.600000000000,   0.62400,
,,,33.800000000000,   0.61600,
,,,34.000000000000,   0.62400,
,,,34.200000000000,   0.64800,
,,,34.400000000000,   0.62400,
,,,34.600000000000,   0.62400,
,,,34.800000000000,   0.61600,
,,,35.000000000000,   0.62400,
,,,35.200000000000,   0.63200,
,,,35.400000000000,   0.64000,
,,,35.600000000000,   0.62400,
,,,35.800000000000,   0.64000,
,,,36.000000000000,   0.64000,
,,,36.200000000000,   0.64800,
,,,36.400000000000,   0.63200,
,,,36.600000000000,   0.63200,
,,,36.800000000000,   0.64800,
,,,37.000000000000,   0.60800,
,,,37.200000000000,   0.63200,
,,,37.400000000000,   0.63200,
,,,37.600000000000,   0.64800,
,,,37.800000000000,   0.64000,
,,,38.000000000000,   0.63200,
,,,38.200000000000,   0.60000,
,,,38.400000000000,   0.62400,
,,,38.600000000000,   0.63200,
,,,38.800000000000,   0.61600,
,,,39.000000000000,   0.64000,
,,,39.200000000000,   0.62400,
,,,39.400000000000,   0.63200,
,,,39.600000000000,   0.65600,
,,,39.800000000000,   0.63200,
,,,40.000000000000,   0.65600,
,,,40.200000000000,   0.63200,
,,,40.400000000000,   0.67200,
,,,40.600000000000,   0.64800,
,,,40.800000000000,   0.63200,
,,,41.000000000000,   0.60800,
,,,41.200000000000,   0.64000,
,,,41.400000000000,   0.63200,
,,,41.600000000000,   0.62400,
,,,41.800000000000,   0.64800,
,,,42.000000000000,   0.64800,
,,,42.200000000000,   0.63200,
,,,42.400000000000,   0.64000,
,,,42.600000000000,   0.64800,
,,,42.800000000000,   0.63200,
,,,43.000000000000,   0.64000,
,,,43.200000000000,   0.64000,
,,,43.400000000000,   0.63200,
,,,43.600000000000,   0.54400,
,,,43.800000000000,   0.64000,
,,,44.000000000000,   0.61600,
,,,44.200000000000,   0.65600,
,,,44.400000000000,   0.64800,
,,,44.600000000000,   0.63200,
,,,44.800000000000,   0.64800,
,,,45.000000000000,   0.64800,
,,,45.200000000000,   0.63200,
,,,45.400000000000,   0.64000,
,,,45.600000000000,   0.63200,
,,,45.800000000000,   0.63200,
,,,46.000000000000,   0.68000,
,,,46.200000000000,   0.64000,
,,,46.400000000000,   0.63200,
,,,46.600000000000,   0.63200,
,,,46.800000000000,   0.64800,
,,,47.000000000000,   0.64800,
,,,47.200000000000,   0.63200,
,,,47.400000000000,   0.64800,
,,,47.600000000000,   0.63200,
,,,47.800000000000,   0.64000,
,,,48.000000000000,   0.64800,
,,,48.200000000000,   0.63200,
,,,48.400000000000,   0.64800,
,,,48.600000000000,   0.63200,
,,,48.800000000000,   0.64800,
,,,49.000000000000,   0.63200,
,,,49.200000000000,   0.64000,
,,,49.400000000000,   0.63200,
,,,49.600000000000,   0.64000,
,,,49.800000000000,   0.64000,
,,,50.000000000000,   0.63200,
,,,50.200000000000,   0.63200,
,,,50.400000000000,   0.63200,
,,,50.600000000000,   0.63200,
,,,50.800000000000,   0.63200,
,,,51.000000000000,   0.63200,
,,,51.200000000000,   0.64800,
,,,51.400000000000,   0.63200,
,,,51.600000000000,   0.63200,
,,,51.800000000000,   0.63200,
,,,52.000000000000,   0.62400,
,,,52.200000000000,   0.65600,
,,,52.400000000000,   0.63200,
,,,52.600000000000,   0.64000,
,,,52.800000000000,   0.63200,
,,,53.000000000000,   0.63200,
,,,53.200000000000,   0.63200,
,,,53.400000000000,   0.65600,
,,,53.600000000000,   0.63200,
,,,53.800000000000,   0.62400,
,,,54.000000000000,   0.62400,
,,,54.200000000000,   0.62400,
,,,54.400000000000,   0.64000,
,,,54.600000000000,   0.62400,
,,,54.800000000000,   0.63200,
,,,55.000000000000,   0.64000,
,,,55.200000000000,   0.64800,
,,,55.400000000000,   0.68800,
,,,55.600000000000,   0.64800,
,,,55.800000000000,   0.64000,
,,,56.000000000000,   0.64000,
,,,56.200000000000,   0.63200,
,,,56.400000000000,   0.64800,
,,,56.600000000000,   0.64000,
,,,56.800000000000,   0.63200,
,,,57.000000000000,   0.63200,
,,,57.200000000000,   0.63200,
,,,57.400000000000,   0.63200,
,,,57.600000000000,   0.64800,
,,,57.800000000000,   0.63200,
,,,58.000000000000,   0.63200,
,,,58.200000000000,   0.64000,
,,,58.400000000000,   0.64000,
,,,58.600000000000,   0.63200,
,,,58.800000000000,   0.62400,
,,,59.000000000000,   0.62400,
,,,59.200000000000,   0.63200,
,,,59.400000000000,   0.64000,
,,,59.600000000000,   0.64800,
,,,59.800000000000,   0.63200,
,,,60.000000000000,   0.62400,
,,,60.200000000000,   0.61600,
,,,60.400000000000,   0.60000,
,,,60.600000000000,   0.62400,
,,,60.800000000000,   0.62400,
,,,61.000000000000,   0.57600,
,,,61.200000000000,   0.64000,
,,,61.400000000000,   0.63200,
,,,61.600000000000,   0.62400,
,,,61.800000000000,   0.64000,
,,,62.000000000000,   0.64000,
,,,62.200000000000,   0.64800,
,,,62.400000000000,   0.63200,
,,,62.600000000000,   0.63200,
,,,62.800000000000,   0.64800,
,,,63.000000000000,   0.60800,
,,,63.200000000000,   0.63200,
,,,63.400000000000,   0.62400,
,,,63.600000000000,   0.63200,
,,,63.800000000000,   0.67200,
,,,64.000000000000,   0.60800,
,,,64.200000000000,   0.60800,
,,,64.400000000000,   0.63200,
,,,64.600000000000,   0.64800,
,,,64.800000000000,   0.58400,
,,,65.000000000000,   0.64000,
,,,65.200000000000,   0.63200,
,,,65.400000000000,   0.64000,
,,,65.600000000000,   0.64000,
,,,65.800000000000,   0.64800,
,,,66.000000000000,   0.63200,
,,,66.200000000000,   0.61600,
,,,66.400000000000,   0.64000,
,,,66.600000000000,   0.63200,
,,,66.800000000000,   0.64000,
,,,67.000000000000,   0.61600,
,,,67.200000000000,   0.62400,
,,,67.400000000000,   0.64800,
,,,67.600000000000,   0.63200,
,,,67.800000000000,   0.63200,
,,,68.000000000000,   0.58400,
,,,68.200000000000,   0.63200,
,,,68.400000000000,   0.64000,
,,,68.600000000000,   0.64000,
,,,68.800000000000,   0.62400,
,,,69.000000000000,   0.64000,
,,,69.200000000000,   0.64000,
,,,69.400000000000,   0.74400,
,,,69.600000000000,   0.64000,
,,,69.800000000000,   0.64800,
,,,70.000000000000,   0.65600,
,,,70.200000000000,   0.64000,
,,,70.400000000000,   0.64800,
,,,70.600000000000,   0.62400,
,,,70.800000000000,   0.63200,
,,,71.000000000000,   0.63200,
,,,71.200000000000,   0.63200,
,,,71.400000000000,   0.64000,
,,,71.600000000000,   0.63200,
,,,71.800000000000,   0.63200,
,,,72.000000000000,   0.64000,
,,,72.200000000000,   0.64000,
,,,72.400000000000,   0.64000,
,,,72.600000000000,   0.65600,
,,,72.800000000000,   0.64000,
,,,73.000000000000,   0.64000,
,,,73.200000000000,   0.62400,
,,,73.400000000000,   0.63200,
,,,73.600000000000,   0.63200,
,,,73.800000000000,   0.63200,
,,,74.000000000000,   0.64000,
,,,74.200000000000,   0.65600,
,,,74.400000000000,   0.64000,
,,,74.600000000000,   0.63200,
,,,74.800000000000,   0.64800,
,,,75.000000000000,   0.63200,
,,,75.200000000000,   0.64000,
,,,75.400000000000,   0.64800,
,,,75.600000000000,   0.64000,
,,,75.800000000000,   0.64800,
,,,76.000000000000,   0.63200,
,,,76.200000000000,   0.64000,
,,,76.400000000000,   0.64000,
,,,76.600000000000,   0.63200,
,,,76.800000000000,   0.64800,
,,,77.000000000000,   0.64000,
,,,77.200000000000,   0.63200,
,,,77.400000000000,   0.64000,
,,,77.600000000000,   0.64800,
,,,77.800000000000,   0.64000,
,,,78.000000000000,   0.64800,
,,,78.200000000000,   0.64800,
,,,78.400000000000,   0.64000,
,,,78.600000000000,   0.64000,
,,,78.800000000000,   0.61600,
,,,79.000000000000,   0.63200,
,,,79.200000000000,   0.61600,
,,,79.400000000000,   0.63200,
,,,79.600000000000,   0.62400,
,,,79.800000000000,   0.64800,
,,,80.000000000000,   0.64800,
,,,80.200000000000,   0.64800,
,,,80.400000000000,   0.64000,
,,,80.600000000000,   0.64000,
,,,80.800000000000,   0.63200,
,,,81.000000000000,   0.63200,
,,,81.200000000000,   0.66400,
,,,81.400000000000,   0.64000,
,,,81.600000000000,   0.63200,
,,,81.800000000000,   0.64800,
,,,82.000000000000,   0.64000,
,,,82.200000000000,   0.64800,
,,,82.400000000000,   0.63200,
,,,82.600000000000,   0.63200,
,,,82.800000000000,   0.65600,
,,,83.000000000000,   0.64800,
,,,83.200000000000,   0.64800,
,,,83.400000000000,   0.64800,
,,,83.600000000000,   0.64800,
,,,83.800000000000,   0.63200,
,,,84.000000000000,   0.63200,
,,,84.200000000000,   0.62400,
,,,84.400000000000,   0.64000,
,,,84.600000000000,   0.64000,
,,,84.800000000000,   0.64000,
,,,85.000000000000,   0.64000,
,,,85.200000000000,   0.64000,
,,,85.400000000000,   0.63200,
,,,85.600000000000,   0.63200,
,,,85.800000000000,   0.61600,
,,,86.000000000000,   0.62400,
,,,86.200000000000,   0.61600,
,,,86.400000000000,   0.64000,
,,,86.600000000000,   0.63200,
,,,86.800000000000,   0.63200,
,,,87.000000000000,   0.63200,
,,,87.200000000000,   0.62400,
,,,87.400000000000,   0.63200,
,,,87.600000000000,   0.60800,
,,,87.800000000000,   0.60800,
,,,88.000000000000,   0.60800,
,,,88.200000000000,   0.62400,
,,,88.400000000000,   0.60000,
,,,88.600000000000,   0.60800,
,,,88.800000000000,   0.60800,
,,,89.000000000000,   0.57600,
,,,89.200000000000,   0.60800,
,,,89.400000000000,   0.60800,
,,,89.600000000000,   0.58400,
,,,89.800000000000,   0.62400,
,,,90.000000000000,   0.58400,
,,,90.200000000000,   0.56800,
,,,90.400000000000,   0.56800,
,,,90.600000000000,   0.60800,
,,,90.800000000000,   0.57600,
,,,91.000000000000,   0.56000,
,,,91.200000000000,   0.59200,
,,,91.400000000000,   0.57600,
,,,91.600000000000,   0.57600,
,,,91.800000000000,   0.56000,
,,,92.000000000000,   0.56800,
,,,92.200000000000,   0.58400,
,,,92.400000000000,   0.56800,
,,,92.600000000000,   0.56800,
,,,92.800000000000,   0.56000,
,,,93.000000000000,   0.56000,
,,,93.200000000000,   0.56800,
,,,93.400000000000,   0.56800,
,,,93.600000000000,   0.56000,
,,,93.800000000000,   0.48000,
,,,94.000000000000,   0.55200,
,,,94.200000000000,   0.54400,
,,,94.400000000000,   0.53600,
,,,94.600000000000,   0.55200,
,,,94.800000000000,   0.56000,
,,,95.000000000000,   0.54400,
,,,95.200000000000,   0.60800,
,,,95.400000000000,   0.55200,
,,,95.600000000000,   0.54400,
,,,95.800000000000,   0.53600,
,,,96.000000000000,   0.54400,
,,,96.200000000000,   0.53600,
,,,96.400000000000,   0.52000,
,,,96.600000000000,   0.56000,
,,,96.800000000000,   0.53600,
,,,97.000000000000,   0.54400,
,,,97.200000000000,   0.53600,
,,,97.400000000000,   0.52800,
,,,97.600000000000,   0.52800,
,,,97.800000000000,   0.52800,
,,,98.000000000000,   0.53600,
,,,98.200000000000,   0.52000,
,,,98.400000000000,   0.52800,
,,,98.600000000000,   0.54400,
,,,98.800000000000,   0.52800,
,,,99.000000000000,   0.52000,
,,,99.200000000000,   0.52800,
,,,99.400000000000,   0.52000,
,,,99.600000000000,   0.52000,
,,,99.800000000000,   0.52000,
,,,100.000000000000,   0.51200,
,,,100.200000000000,   0.52800,
,,,100.400000000000,   0.53600,
,,,100.600000000000,   0.48800,
,,,100.800000000000,   0.50400,
,,,101.000000000000,   0.51200,
,,,101.200000000000,   0.49600,
,,,101.400000000000,   0.50400,
,,,101.600000000000,   0.48000,
,,,101.800000000000,   0.50400,
,,,102.000000000000,   0.51200,
,,,102.200000000000,   0.50400,
,,,102.400000000000,   0.50400,
,,,102.600000000000,   0.50400,
,,,102.800000000000,   0.51200,
,,,103.000000000000,   0.49600,
,,,103.200000000000,   0.50400,
,,,103.400000000000,   0.49600,
,,,103.600000000000,   0.51200,
,,,103.800000000000,   0.49600,
,,,104.000000000000,   0.50400,
,,,104.200000000000,   0.48800,
,,,104.400000000000,   0.49600,
,,,104.600000000000,   0.49600,
,,,104.800000000000,   0.50400,
,,,105.000000000000,   0.48000,
,,,105.200000000000,   0.48800,
,,,105.400000000000,   0.52000,
,,,105.600000000000,   0.48800,
,,,105.800000000000,   0.50400,
,,,106.000000000000,   0.48800,
,,,106.200000000000,   0.48800,
,,,106.400000000000,   0.51200,
,,,106.600000000000,   0.49600,
,,,106.800000000000,   0.48000,
,,,107.000000000000,   0.48000,
,,,107.200000000000,   0.47200,
,,,107.400000000000,   0.47200,
,,,107.600000000000,   0.52000,
,,,107.800000000000,   0.49600,
,,,108.000000000000,   0.48800,
,,,108.200000000000,   0.48800,
,,,108.400000000000,   0.48000,
,,,108.600000000000,   0.48800,
,,,108.800000000000,   0.48000,
,,,109.000000000000,   0.48000,
,,,109.200000000000,   0.48800,
,,,109.400000000000,   0.41600,
,,,109.600000000000,   0.48800,
,,,109.800000000000,   0.46400,
,,,110.000000000000,   0.48000,
,,,110.200000000000,   0.47200,
,,,110.400000000000,   0.48000,
,,,110.600000000000,   0.48000,
,,,110.800000000000,   0.47200,
,,,111.000000000000,   0.47200,
,,,111.200000000000,   0.47200,
,,,111.400000000000,   0.48000,
,,,111.600000000000,   0.47200,
,,,111.800000000000,   0.48000,
,,,112.000000000000,   0.48000,
,,,112.200000000000,   0.47200,
,,,112.400000000000,   0.48000,
,,,112.600000000000,   0.48000,
,,,112.800000000000,   0.44800,
,,,113.000000000000,   0.46400,
,,,113.200000000000,   0.49600,
,,,113.400000000000,   0.46400,
,,,113.600000000000,   0.47200,
,,,113.800000000000,   0.48000,
,,,114.000000000000,   0.48800,
,,,114.200000000000,   0.47200,
,,,114.400000000000,   0.45600,
,,,114.600000000000,   0.46400,
,,,114.800000000000,   0.45600,
,,,115.000000000000,   0.45600,
,,,115.200000000000,   0.50400,
,,,115.400000000000,   0.48000,
,,,115.600000000000,   0.45600,
,,,115.800000000000,   0.47200,
,,,116.000000000000,   0.48000,
,,,116.200000000000,   0.47200,
,,,116.400000000000,   0.46400,
,,,116.600000000000,   0.48000,
,,,116.800000000000,   0.46400,
,,,117.000000000000,   0.45600,
,,,117.200000000000,   0.47200,
,,,117.400000000000,   0.45600,
,,,117.600000000000,   0.48000,
,,,117.800000000000,   0.46400,
,,,118.000000000000,   0.44800,
,,,118.200000000000,   0.46400,
,,,118.400000000000,   0.46400,
,,,118.600000000000,   0.44800,
,,,118.800000000000,   0.46400,
,,,119.000000000000,   0.47200,
,,,119.200000000000,   0.46400,
,,,119.400000000000,   0.44800,
,,,119.600000000000,   0.44000,
,,,119.800000000000,   0.44000,
,,,120.000000000000,   0.46400,
,,,120.200000000000,   0.44800,
,,,120.400000000000,   0.47200,
,,,120.600000000000,   0.44800,
,,,120.800000000000,   0.44800,
,,,121.000000000000,   0.43200,
,,,121.200000000000,   0.43200,
,,,121.400000000000,   0.39200,
,,,121.600000000000,   0.44000,
,,,121.800000000000,   0.44800,
,,,122.000000000000,   0.45600,
,,,122.200000000000,   0.44000,
,,,122.400000000000,   0.44000,
,,,122.600000000000,   0.47200,
,,,122.800000000000,   0.42400,
,,,123.000000000000,   0.44800,
,,,123.200000000000,   0.48000,
,,,123.400000000000,   0.46400,
,,,123.600000000000,   0.45600,
,,,123.800000000000,   0.45600,
,,,124.000000000000,   0.45600,
,,,124.200000000000,   0.44800,
,,,124.400000000000,   0.44800,
,,,124.600000000000,   0.45600,
,,,124.800000000000,   0.46400,
,,,125.000000000000,   0.44800,
,,,125.200000000000,   0.46400,
,,,125.400000000000,   0.44000,
,,,125.600000000000,   0.44800,
,,,125.800000000000,   0.45600,
